{
  "classes/Algorithms.html": {
    "href": "classes/Algorithms.html",
    "title": "Namespace Algorithms | Unity Project: Gesture Recognition",
    "keywords": "Namespace Algorithms Classes Recognizer Class with all the main functions use to recognize a gesture based on the pseudo code provided in the paper : Wobbrock, Jacob O., Andrew D. Wilson, and Yang Li. \"Gestures without libraries, toolkits or training: a $1 recognizer for user interface prototypes.\" In Proceedings of the 20th annual ACM symposium on User interface software and technology, pp. 159-168. 2007."
  },
  "classes/Algorithms.Recognizer.html": {
    "href": "classes/Algorithms.Recognizer.html",
    "title": "Class Recognizer | Unity Project: Gesture Recognition",
    "keywords": "Class Recognizer Class with all the main functions use to recognize a gesture based on the pseudo code provided in the paper : Wobbrock, Jacob O., Andrew D. Wilson, and Yang Li. \"Gestures without libraries, toolkits or training: a $1 recognizer for user interface prototypes.\" In Proceedings of the 20th annual ACM symposium on User interface software and technology, pp. 159-168. 2007. Inheritance Object Recognizer Namespace : Algorithms Assembly : cs.temp.dll.dll Syntax public static class Recognizer Methods BoundingBox(in Drawing) Returns a rectangle define by (xMin, yMin),(xMax,yMax) the coordinates max and min in the drawing Declaration public static Drawing BoundingBox(in Drawing drawing) Parameters Type Name Description Drawing drawing Returns Type Description Drawing Centroid(in Drawing) Find the centroid of the drawing Declaration public static Vector2 Centroid(in Drawing drawing) Parameters Type Name Description Drawing drawing Returns Type Description Vector2 DistanceAtAngle(in Drawing, in Drawing, Single) Return the distance between two drawings after rotating the candidate list Declaration public static float DistanceAtAngle(in Drawing Candidate, in Drawing Template, float angleLimit) Parameters Type Name Description Drawing Candidate Drawing Template Single angleLimit Returns Type Description Single DistanceAtBestAngle(in Drawing, in Drawing, Single, Single, Single) Return the distance between two drawings for the minimum angle between the template and candidate lists Declaration public static float DistanceAtBestAngle(in Drawing candidate, in Drawing template, float angleLimitNegative, float angleLimitPositive, float threshold) Parameters Type Name Description Drawing candidate Drawing template Single angleLimitNegative Single angleLimitPositive Single threshold Returns Type Description Single IndicativeAngle(in Drawing) Compute the angle from the centroid of the drawing and the first point (resp. first point drawn by the user) Declaration public static float IndicativeAngle(in Drawing drawing) Parameters Type Name Description Drawing drawing Returns Type Description Single PathDistance(in Drawing, in Drawing) Return the distance between two drawings Declaration public static float PathDistance(in Drawing candidate, in Drawing template) Parameters Type Name Description Drawing candidate Drawing template Returns Type Description Single PathLength(in Drawing) Compute the total distance between each dot of the drawing Declaration public static float PathLength(in Drawing drawing) Parameters Type Name Description Drawing drawing Returns Type Description Single Recognize(in Drawing, in List<Drawing>) Return a score (the rating of a set of template for corresponding to candidate) for the set of template Declaration public static Tuple<Drawing, float> Recognize(in Drawing Candidate, in List<Drawing> Templates) Parameters Type Name Description Drawing Candidate List < Drawing > Templates Returns Type Description Tuple < Drawing , Single > Resample(in Drawing, Int32) Resample the drawing to the number nbOfPointsAfterResampling Declaration public static Drawing Resample(in Drawing drawing, int nbOfPointsAfterResampling) Parameters Type Name Description Drawing drawing Int32 nbOfPointsAfterResampling Returns Type Description Drawing RotateBy(in Drawing, Single) Rotate the drawing by -angle to set this angle to 0 degree Declaration public static Drawing RotateBy(in Drawing drawing, float angle) Parameters Type Name Description Drawing drawing Single angle Returns Type Description Drawing ScaleTo(in Drawing, Int32) Scale the drawing so that the resulting bounding box will be of size^2 size. Size=250 is used for this application. Declaration public static Drawing ScaleTo(in Drawing drawing, int size) Parameters Type Name Description Drawing drawing Int32 size Returns Type Description Drawing TranslateTo(in Drawing, Vector2) Translate the drawing to a specific point ( origin) Declaration public static Drawing TranslateTo(in Drawing drawing, Vector2 origin) Parameters Type Name Description Drawing drawing Vector2 origin Returns Type Description Drawing"
  },
  "classes/Global.BoardController.html": {
    "href": "classes/Global.BoardController.html",
    "title": "Class BoardController | Unity Project: Gesture Recognition",
    "keywords": "Class BoardController This class allows to detect when the user draw on the surface (gameobject with a collider to which it is attached) Inheritance Object BoardController Namespace : Global Assembly : cs.temp.dll.dll Syntax public class BoardController : MonoBehaviour Methods OnMouseDownDrawingBoard(Action) Callback for OnMouseDown() Declaration public void OnMouseDownDrawingBoard(Action callback) Parameters Type Name Description Action callback OnMouseOverDrawingBoard(Action) Callback for OnMouseOver() Declaration public void OnMouseOverDrawingBoard(Action callback) Parameters Type Name Description Action callback OnMouseUpDrawingBoard(Action) Callback for OnMouseDown() Declaration public void OnMouseUpDrawingBoard(Action callback) Parameters Type Name Description Action callback"
  },
  "classes/Global.Brush.html": {
    "href": "classes/Global.Brush.html",
    "title": "Class Brush | Unity Project: Gesture Recognition",
    "keywords": "Class Brush This class allows to draw with the mouse. Inheritance Object Brush Namespace : Global Assembly : cs.temp.dll.dll Syntax public class Brush : MonoBehaviour Properties currentCandidate the last drawing stored Declaration public Drawing currentCandidate { get; } Property Value Type Description Drawing Methods CreateBrush() Intanciate and Initialise our brush Declaration public void CreateBrush() PointToMousePos() Sent an unique mouse position to the Draw function Declaration public void PointToMousePos() StoreGestureDrawn() This function fill the currentCandidate list with a drawing. Declaration public void StoreGestureDrawn()"
  },
  "classes/Global.Display.html": {
    "href": "classes/Global.Display.html",
    "title": "Class Display | Unity Project: Gesture Recognition",
    "keywords": "Class Display Provide the main function to interact and link with the UI with the main functionalities Inheritance Object Display Namespace : Global Assembly : cs.temp.dll.dll Syntax public class Display : MonoBehaviour Fields drawingBoard Declaration public BoardController drawingBoard Field Value Type Description BoardController drawingBoardText Declaration public Text drawingBoardText Field Value Type Description Text executionTimeText Declaration public Text executionTimeText Field Value Type Description Text gestureName Declaration public InputField gestureName Field Value Type Description InputField scoreText Declaration public Text scoreText Field Value Type Description Text screenText Declaration public Text screenText Field Value Type Description Text thresholdScoreSlider Declaration public Slider thresholdScoreSlider Field Value Type Description Slider thresholdScoreText Declaration public Text thresholdScoreText Field Value Type Description Text userManualText Declaration public Text userManualText Field Value Type Description Text Methods displayDrawingTooSmallWarning() Declaration public void displayDrawingTooSmallWarning() DisplayGestureDrawnName(Dictionary<Int32, String>, Tuple<Int32, Single>, Single, Single) Display the name of the drawing, the execution time and the score on the panel infos. Declaration public void DisplayGestureDrawnName(Dictionary<int, string> indexToTemplateName, Tuple<int, float> currentIndexScore, float executionTime, float thresholdScore) Parameters Type Name Description Dictionary < Int32 , String > indexToTemplateName Tuple < Int32 , Single > currentIndexScore Single executionTime Single thresholdScore displayNoTemplateSaved() Declaration public void displayNoTemplateSaved() displayNoXMLFileFound() Declaration public void displayNoXMLFileFound() displayNoXMLFolderFound() Declaration public void displayNoXMLFolderFound() displaySavingFailed() Declaration public void displaySavingFailed() displayTemplateAdded() Declaration public void displayTemplateAdded() displayTemplateSaved() Declaration public void displayTemplateSaved() displayTemplatesLoaded() Declaration public void displayTemplatesLoaded() HideDisplayedInformation() Remove information from the infos panel except the score threshold Declaration public void HideDisplayedInformation() OnClickAddTemplate() Activated by the button UI \"Add template\" and call AddCurrentTemplate Declaration public void OnClickAddTemplate() OnClickExit() Quit the application. Declaration public void OnClickExit() OnClickLoad() Activated by the button UI \"Load\" Declaration public void OnClickLoad() OnClickManual() Display information about the different buttons and parts Declaration public void OnClickManual() OnClickSave() Activated by the button UI \"Save\" Declaration public void OnClickSave() OnValueChangedThresholdScore(Single) User can control the threshold below which the results from the recognizer is rejected Declaration public void OnValueChangedThresholdScore(float valueNotUsed) Parameters Type Name Description Single valueNotUsed SetAddTemplateButtonCallback(Action) Callback for OnClickAddTemplate() Declaration public void SetAddTemplateButtonCallback(Action callback) Parameters Type Name Description Action callback SetExitButtonCallback(Action) Callback for OnClickExit() Declaration public void SetExitButtonCallback(Action callback) Parameters Type Name Description Action callback SetLoadButtonCallback(Action) Callback for OnClickLoad() Declaration public void SetLoadButtonCallback(Action callback) Parameters Type Name Description Action callback SetSaveButtonCallback(Action) Callback for OnClickAddTemplate() Declaration public void SetSaveButtonCallback(Action callback) Parameters Type Name Description Action callback SetValueChangedThresholdScoreSliderCallback(Action) Callback for OnValueChangedThresholdScore() Declaration public void SetValueChangedThresholdScoreSliderCallback(Action callback) Parameters Type Name Description Action callback ShowPercentageThresholdScore() Declaration public void ShowPercentageThresholdScore()"
  },
  "classes/Global.Drawing.html": {
    "href": "classes/Global.Drawing.html",
    "title": "Class Drawing | Unity Project: Gesture Recognition",
    "keywords": "Class Drawing Class use to store the point of the drawing Inheritance Object Drawing Namespace : Global Assembly : cs.temp.dll.dll Syntax public class Drawing : List<Vector2> Methods From3DVectors(Vector3[]) Convert a 3D array to a 2D List Declaration public static Drawing From3DVectors(Vector3[] ArrayToConvert) Parameters Type Name Description Vector3 [] ArrayToConvert Returns Type Description Drawing"
  },
  "classes/Global.GestureRecognizer.html": {
    "href": "classes/Global.GestureRecognizer.html",
    "title": "Class GestureRecognizer | Unity Project: Gesture Recognition",
    "keywords": "Class GestureRecognizer This class handles the recognition of the drawing Inheritance Object GestureRecognizer Namespace : Global Assembly : cs.temp.dll.dll Syntax public class GestureRecognizer Constructors GestureRecognizer() Declaration public GestureRecognizer() Properties indexToTemplateName Store the name of the template for the corresponding index in the preprocessedSetsOfTemplates Declaration public Dictionary<int, string> indexToTemplateName { get; } Property Value Type Description Dictionary < Int32 , String > preprocessedSetsOfTemplates Set of template against which the drawing processed is compared Declaration public List<List<Drawing>> preprocessedSetsOfTemplates { get; } Property Value Type Description List < List < Drawing >> templateNameToIndex Store the index in the preprocessedSetsOfTemplates for the corresponding name of template Declaration public Dictionary<string, int> templateNameToIndex { get; } Property Value Type Description Dictionary < String , Int32 > Methods AddCurrentTemplate(String) Add the new gesture drawn to the library of set of templates Declaration public void AddCurrentTemplate(string templateName) Parameters Type Name Description String templateName AddLoadedTemplate(Drawing, String) Add load gesture to the library of set of templates Declaration public void AddLoadedTemplate(Drawing preprocessedTemplateLoaded, string templateName) Parameters Type Name Description Drawing preprocessedTemplateLoaded String templateName ComputeIndexScore(in Drawing) Returns the index and the score of the best set of templates ( the type of gesture) Declaration public Tuple<int, float> ComputeIndexScore(in Drawing candidate) Parameters Type Name Description Drawing candidate Returns Type Description Tuple < Int32 , Single > LoadTemplatesLists(String) Loop through all the XML files to load them as new templates. Declaration public void LoadTemplatesLists(string filePath) Parameters Type Name Description String filePath SaveTemplatesLists(String) Loop through all the templates to save them. Declaration public void SaveTemplatesLists(string folderPath) Parameters Type Name Description String folderPath"
  },
  "classes/Global.html": {
    "href": "classes/Global.html",
    "title": "Namespace Global | Unity Project: Gesture Recognition",
    "keywords": "Namespace Global More general classes. Classes BoardController This class allows to detect when the user draw on the surface (gameobject with a collider to which it is attached) Brush This class allows to draw with the mouse. Display Provide the main function to interact and link with the UI with the main functionalities Drawing Class use to store the point of the drawing GestureRecognizer This class handles the recognition of the drawing ListTooSmallException MissingFileException MissingFolderException SceneController This class is the main controller of the scene."
  },
  "classes/Global.ListTooSmallException.html": {
    "href": "classes/Global.ListTooSmallException.html",
    "title": "Class ListTooSmallException | Unity Project: Gesture Recognition",
    "keywords": "Class ListTooSmallException Inheritance Object Exception ListTooSmallException Namespace : Global Assembly : cs.temp.dll.dll Syntax public class ListTooSmallException : Exception, ISerializable, _Exception"
  },
  "classes/Global.MissingFileException.html": {
    "href": "classes/Global.MissingFileException.html",
    "title": "Class MissingFileException | Unity Project: Gesture Recognition",
    "keywords": "Class MissingFileException Inheritance Object Exception MissingFileException Namespace : Global Assembly : cs.temp.dll.dll Syntax public class MissingFileException : Exception, ISerializable, _Exception"
  },
  "classes/Global.MissingFolderException.html": {
    "href": "classes/Global.MissingFolderException.html",
    "title": "Class MissingFolderException | Unity Project: Gesture Recognition",
    "keywords": "Class MissingFolderException Inheritance Object Exception MissingFolderException Namespace : Global Assembly : cs.temp.dll.dll Syntax public class MissingFolderException : Exception, ISerializable, _Exception"
  },
  "classes/Global.SceneController.html": {
    "href": "classes/Global.SceneController.html",
    "title": "Class SceneController | Unity Project: Gesture Recognition",
    "keywords": "Class SceneController This class is the main controller of the scene. Inheritance Object SceneController Namespace : Global Assembly : cs.temp.dll.dll Syntax public class SceneController : MonoBehaviour Fields boardController Declaration public BoardController boardController Field Value Type Description BoardController brush Declaration public Brush brush Field Value Type Description Brush display Declaration public Display display Field Value Type Description Display filePath Declaration public string filePath Field Value Type Description String minimalDrawingLength Declaration public int minimalDrawingLength Field Value Type Description Int32 Methods isDrawingValid(Drawing) Check if the drawing is valid Declaration public bool isDrawingValid(Drawing drawing) Parameters Type Name Description Drawing drawing Returns Type Description Boolean"
  },
  "classes/TestRecognizer.html": {
    "href": "classes/TestRecognizer.html",
    "title": "Namespace TestRecognizer | Unity Project: Gesture Recognition",
    "keywords": "Namespace TestRecognizer Classes RecognizerTestSuite Testsuite which tests all the main function uses to recognize a gesture"
  },
  "classes/TestRecognizer.RecognizerTestSuite.html": {
    "href": "classes/TestRecognizer.RecognizerTestSuite.html",
    "title": "Class RecognizerTestSuite | Unity Project: Gesture Recognition",
    "keywords": "Class RecognizerTestSuite Testsuite which tests all the main function uses to recognize a gesture Inheritance Object RecognizerTestSuite Namespace : TestRecognizer Assembly : cs.temp.dll.dll Syntax public class RecognizerTestSuite Methods ComputeAScoreForASetOfTemplate() This test checks if the scores computed, the rating of a set of template for corresponding to candidate, is correct. Declaration public IEnumerator ComputeAScoreForASetOfTemplate() Returns Type Description IEnumerator DefineABoxAroundTheDrawing() This test checks if the points in the list are inside the define bounding box Declaration public IEnumerator DefineABoxAroundTheDrawing() Returns Type Description IEnumerator DistanceBetweenTwoListsOfPoints() This test checks if the distance between the two list of points is correct. Declaration public IEnumerator DistanceBetweenTwoListsOfPoints() Returns Type Description IEnumerator FindTheAngleBetween() This test checks if the angle computed for the vector first point-centroid is correct Declaration public IEnumerator FindTheAngleBetween() Returns Type Description IEnumerator FindTheCentroidOfAListofVectors() This test checks that the vector coordinates corresponds to the centroid coordinates of the list of points provided Declaration public IEnumerator FindTheCentroidOfAListofVectors() Returns Type Description IEnumerator FindTheDistanceAtBestAngleToComputeTheDistanceBetweenTheListOfPoints() This test checks if the distance between the two list of points is correct within a tolerance of 0.5 Declaration public IEnumerator FindTheDistanceAtBestAngleToComputeTheDistanceBetweenTheListOfPoints() Returns Type Description IEnumerator GiveGesturePathLength() This test checks that the PathLength function provides the correct length of the drawing Declaration public IEnumerator GiveGesturePathLength() Returns Type Description IEnumerator PointsAreTranslatedToANewPosition() This test cheks if all the new centroid of the drawing correspond to the provided point corresponding to the origin Declaration public IEnumerator PointsAreTranslatedToANewPosition() Returns Type Description IEnumerator ResampleTheNumberOfPointsInTheList() This test checks that the list of dots corresponding to a drawing is resampled to the correct number of dots. Declaration public IEnumerator ResampleTheNumberOfPointsInTheList() Returns Type Description IEnumerator RotateThePointsInAList() This test checks if all the points in the list are rotated by the angle provided Declaration public IEnumerator RotateThePointsInAList() Returns Type Description IEnumerator SetupOnce() Declaration public void SetupOnce() SizeOfTheScaledBoundingbox() This test checks if the size of the rescaling bounding box. However this test does not check for critical case like line or a point since ScaleTo is known for not handling these cases. Declaration public IEnumerator SizeOfTheScaledBoundingbox() Returns Type Description IEnumerator TearDown() Declaration public void TearDown()"
  },
  "index.html": {
    "href": "index.html",
    "title": "Innovation Design Challenge: Gesture Recognizer | Unity Project: Gesture Recognition",
    "keywords": "Innovation Design Challenge: Gesture Recognizer This Unity project is an implementation of the $1 gesture recognizer based on pseudocode provided by the paper authors: Wobbrock, Jacob O., Andrew D. Wilson, and Yang Li. \"Gestures without libraries, toolkits or training: a $1 recognizer for user interface prototypes.\" In Proceedings of the 20th annual ACM symposium on User interface software and technology, pp. 159-168. 2007. Description This image illustrates an drawing from the user as an Arrow at 90% with only one template trained Users can train (Add button) the recognizer with their own gesture (drawn on the left panel) and save/load them for a next session. Notice The following instructions have to be followed: To save the gestures, they have to be added first. The gestures are saved in a Xml folder next to executable. The folder will be created if no Xml folder. To load the gestures, they need to be inside the Xml folder. Requirement The application currently works only on Windows 64bits plateform. Play The Application First download the build from the release page . Launch the build and Enjoy! Building The application does not support resizing window. Indeed only the canvas will resize but not the gameobjects. Thus, the option Resizable Window needs to be uncheked. The resolution need to be fixed and standard (4k HUD,QHD,FullHD,WXGA). Code Documentation The documentation of the code can be found here I'm looking forward to discuss with you! - Thibault Porssut"
  },
  "uml/diagram.html": {
    "href": "uml/diagram.html",
    "title": "Application's Model | Unity Project: Gesture Recognition",
    "keywords": "Application's Model"
  }
}